Nested Sampling Global Log-Evidence           :   -0.131949174632465560E+02  +/-    0.107728712743373714E+00

Local Mode Properties
-------------------------------------------

Total Modes Found:           4


Mode   1
Strictly Local Log-Evidence   -0.287222822283285630E+02 +/-    0.193888464057605070E+00
Local Log-Evidence   -0.287198468914108105E+02 +/-    0.101969157712556130E+00

Dim No.       Mean        Sigma
   1    0.198172363229158890E+03    0.130916377679432561E+02
   2    0.636273481446191889E-21    0.132363856222672372E-21
   3    0.505844498367262040E-02    0.239353335257710492E-03

Maximum Likelihood Parameters
Dim No.        Parameter
   1    0.199318442992220724E+03
   2    0.667608452882209950E-21
   3    0.510361241086517651E-02

MAP Parameters
Dim No.        Parameter
   1    0.199318442992220724E+03
   2    0.667608452882209950E-21
   3    0.510361241086517651E-02


Mode   2
Strictly Local Log-Evidence   -0.131949177420947255E+02 +/-    0.156805237460830471E+00
Local Log-Evidence   -0.131949177413408769E+02 +/-    0.107728735738931186E+00

Dim No.       Mean        Sigma
   1    0.200528713267640796E+03    0.819091771530100843E+01
   2    0.981595429899814453E-21    0.134580411788327822E-21
   3    0.100004370946252044E-01    0.106329392527672792E-03

Maximum Likelihood Parameters
Dim No.        Parameter
   1    0.200674803137065453E+03
   2    0.100378503853905717E-20
   3    0.100086307919958831E-01

MAP Parameters
Dim No.        Parameter
   1    0.200674803137065453E+03
   2    0.100378503853905717E-20
   3    0.100086307919958831E-01


Mode   3
Strictly Local Log-Evidence   -0.293462832825179696E+02 +/-    0.214451611510329598E+00
Local Log-Evidence   -0.293425104250227342E+02 +/-    0.102897411303785269E+00

Dim No.       Mean        Sigma
   1    0.201046040763515890E+03    0.130093670873266589E+02
   2    0.627169195386153501E-21    0.136594578175332092E-21
   3    0.148882774227186571E-01    0.236837336334026245E-03

Maximum Likelihood Parameters
Dim No.        Parameter
   1    0.201617800437595093E+03
   2    0.656402620359833690E-21
   3    0.148647177793968209E-01

MAP Parameters
Dim No.        Parameter
   1    0.201617800437595093E+03
   2    0.656402620359833690E-21
   3    0.148647177793968209E-01


Mode   4
Strictly Local Log-Evidence   -0.395642682808699320E+02 +/-    0.760849909238301314E+00
Local Log-Evidence   -0.374234965784236877E+02 +/-    0.734833050731824311E-01

Dim No.       Mean        Sigma
   1    0.257580007465873337E+03    0.190166492541717140E+02
   2    0.187207854423339981E-21    0.859393088971418428E-22
   3    0.135198532944687017E-02    0.236145642690159253E-03

Maximum Likelihood Parameters
Dim No.        Parameter
   1    0.222163712837125701E+03
   2    0.198049761452795767E-21
   3    0.107317007291131221E-02

MAP Parameters
Dim No.        Parameter
   1    0.222163712837125701E+03
   2    0.198049761452795767E-21
   3    0.107317007291131221E-02
